src/quartus/simulation/qsim/traffic_light.msim.vcd
$comment
	File created using the following command:
		vcd file traffic_light.msim.vcd -direction
$end
$date
	Fri Jul 23 20:17:32 2021
$end
$version
	ModelSim Version 10.5b
$end
$timescale
	1ps
$end

$scope module traffic_light_vlg_vec_tst $end
$var reg 1 ! c $end
$var reg 1 " clk $end
$var reg 1 # reset $end
$var wire 1 $ FG $end
$var wire 1 % FR $end
$var wire 1 & FY $end
$var wire 1 ' HG $end
$var wire 1 ( HR $end
$var wire 1 ) HY $end
$var wire 1 * ST_o $end
$var wire 1 + TL_o $end
$var wire 1 , TS_o $end
$var wire 1 - Timing [10] $end
$var wire 1 . Timing [9] $end
$var wire 1 / Timing [8] $end
$var wire 1 0 Timing [7] $end
$var wire 1 1 Timing [6] $end
$var wire 1 2 Timing [5] $end
$var wire 1 3 Timing [4] $end
$var wire 1 4 Timing [3] $end
$var wire 1 5 Timing [2] $end
$var wire 1 6 Timing [1] $end
$var wire 1 7 Timing [0] $end
$var wire 1 8 timeoff $end

$scope module i1 $end
$var wire 1 9 gnd $end
$var wire 1 : vcc $end
$var wire 1 ; unknown $end
$var tri1 1 < devclrn $end
$var tri1 1 = devpor $end
$var tri1 1 > devoe $end
$var wire 1 ? Timing[0]~output_o $end
$var wire 1 @ Timing[1]~output_o $end
$var wire 1 A Timing[2]~output_o $end
$var wire 1 B Timing[3]~output_o $end
$var wire 1 C Timing[4]~output_o $end
$var wire 1 D Timing[5]~output_o $end
$var wire 1 E Timing[6]~output_o $end
$var wire 1 F Timing[7]~output_o $end
$var wire 1 G Timing[8]~output_o $end
$var wire 1 H Timing[9]~output_o $end
$var wire 1 I Timing[10]~output_o $end
$var wire 1 J TL_o~output_o $end
$var wire 1 K TS_o~output_o $end
$var wire 1 L timeoff~output_o $end
$var wire 1 M HG~output_o $end
$var wire 1 N HY~output_o $end
$var wire 1 O HR~output_o $end
$var wire 1 P FG~output_o $end
$var wire 1 Q FY~output_o $end
$var wire 1 R FR~output_o $end
$var wire 1 S ST_o~output_o $end
$var wire 1 T clk~input_o $end
$var wire 1 U IntervalTimer_inst|TrafficLightCounter_inst|D_ff_inst[1]|nand2~combout $end
$var wire 1 V IntervalTimer_inst|TS~0_combout $end
$var wire 1 W c~input_o $end
$var wire 1 X Selector2~0_combout $end
$var wire 1 Y reset~input_o $end
$var wire 1 Z state.S2~q $end
$var wire 1 [ Selector3~0_combout $end
$var wire 1 \ state.S3~q $end
$var wire 1 ] Selector0~0_combout $end
$var wire 1 ^ state.S0~q $end
$var wire 1 _ Selector1~0_combout $end
$var wire 1 ` state.S1~q $end
$var wire 1 a Selector4~2_combout $end
$var wire 1 b Selector4~4_combout $end
$var wire 1 c IntervalTimer_inst|TrafficLightCounter_inst|D_ff_inst[1]|nand3~0_combout $end
$var wire 1 d IntervalTimer_inst|TrafficLightCounter_inst|D_ff_inst[1]|nand1~0_combout $end
$var wire 1 e IntervalTimer_inst|TrafficLightCounter_inst|D_ff_inst[1]|nand4~combout $end
$var wire 1 f IntervalTimer_inst|TrafficLightCounter_inst|D_ff_inst[2]|nand2~combout $end
$var wire 1 g IntervalTimer_inst|TrafficLightCounter_inst|HAS_inst[2]|xor0~combout $end
$var wire 1 h IntervalTimer_inst|TrafficLightCounter_inst|D_ff_inst[2]|nand3~0_combout $end
$var wire 1 i IntervalTimer_inst|TrafficLightCounter_inst|D_ff_inst[2]|nand1~0_combout $end
$var wire 1 j IntervalTimer_inst|TrafficLightCounter_inst|D_ff_inst[2]|nand4~combout $end
$var wire 1 k IntervalTimer_inst|TrafficLightCounter_inst|D_ff_inst[3]|nand2~combout $end
$var wire 1 l IntervalTimer_inst|TrafficLightCounter_inst|HAS_inst[3]|xor0~combout $end
$var wire 1 m IntervalTimer_inst|TrafficLightCounter_inst|D_ff_inst[3]|nand3~0_combout $end
$var wire 1 n IntervalTimer_inst|TrafficLightCounter_inst|D_ff_inst[3]|nand1~0_combout $end
$var wire 1 o IntervalTimer_inst|TrafficLightCounter_inst|D_ff_inst[3]|nand4~combout $end
$var wire 1 p IntervalTimer_inst|TrafficLightCounter_inst|WideOr0~1_combout $end
$var wire 1 q IntervalTimer_inst|TrafficLightCounter_inst|D_ff_inst[4]|nand2~0_combout $end
$var wire 1 r IntervalTimer_inst|TrafficLightCounter_inst|D_ff_inst[4]|nand3~combout $end
$var wire 1 s IntervalTimer_inst|TrafficLightCounter_inst|D_ff_inst[4]|nand1~0_combout $end
$var wire 1 t IntervalTimer_inst|TrafficLightCounter_inst|D_ff_inst[4]|nand4~0_combout $end
$var wire 1 u IntervalTimer_inst|TrafficLightCounter_inst|D_ff_inst[5]|nand2~0_combout $end
$var wire 1 v IntervalTimer_inst|TrafficLightCounter_inst|D_ff_inst[5]|nand3~combout $end
$var wire 1 w IntervalTimer_inst|TrafficLightCounter_inst|D_ff_inst[5]|nand1~0_combout $end
$var wire 1 x IntervalTimer_inst|TrafficLightCounter_inst|D_ff_inst[5]|nand4~0_combout $end
$var wire 1 y IntervalTimer_inst|TrafficLightCounter_inst|WideOr0~0_combout $end
$var wire 1 z IntervalTimer_inst|TrafficLightCounter_inst|D_ff_inst[6]|nand2~0_combout $end
$var wire 1 { IntervalTimer_inst|TrafficLightCounter_inst|D_ff_inst[6]|nand3~combout $end
$var wire 1 | IntervalTimer_inst|TrafficLightCounter_inst|D_ff_inst[6]|nand1~0_combout $end
$var wire 1 } IntervalTimer_inst|TrafficLightCounter_inst|D_ff_inst[6]|nand4~0_combout $end
$var wire 1 ~ IntervalTimer_inst|TrafficLightCounter_inst|D_ff_inst[7]|nand2~0_combout $end
$var wire 1 !! IntervalTimer_inst|TrafficLightCounter_inst|D_ff_inst[7]|nand3~combout $end
$var wire 1 "! IntervalTimer_inst|TrafficLightCounter_inst|D_ff_inst[7]|nand1~0_combout $end
$var wire 1 #! IntervalTimer_inst|TrafficLightCounter_inst|D_ff_inst[7]|nand4~0_combout $end
$var wire 1 $! IntervalTimer_inst|TrafficLightCounter_inst|WideOr0~2_combout $end
$var wire 1 %! IntervalTimer_inst|TrafficLightCounter_inst|D_ff_inst[8]|nand2~0_combout $end
$var wire 1 &! IntervalTimer_inst|TrafficLightCounter_inst|D_ff_inst[8]|nand3~combout $end
$var wire 1 '! IntervalTimer_inst|TrafficLightCounter_inst|D_ff_inst[8]|nand1~0_combout $end
$var wire 1 (! IntervalTimer_inst|TrafficLightCounter_inst|D_ff_inst[8]|nand4~0_combout $end
$var wire 1 )! IntervalTimer_inst|TrafficLightCounter_inst|D_ff_inst[9]|nand2~0_combout $end
$var wire 1 *! IntervalTimer_inst|TrafficLightCounter_inst|D_ff_inst[9]|nand3~combout $end
$var wire 1 +! IntervalTimer_inst|TrafficLightCounter_inst|D_ff_inst[9]|nand1~0_combout $end
$var wire 1 ,! IntervalTimer_inst|TrafficLightCounter_inst|D_ff_inst[9]|nand4~0_combout $end
$var wire 1 -! IntervalTimer_inst|TrafficLightCounter_inst|WideOr0~3_combout $end
$var wire 1 .! IntervalTimer_inst|TrafficLightCounter_inst|D_ff_inst[10]|nand2~0_combout $end
$var wire 1 /! IntervalTimer_inst|TrafficLightCounter_inst|D_ff_inst[10]|nand3~combout $end
$var wire 1 0! IntervalTimer_inst|TrafficLightCounter_inst|D_ff_inst[10]|nand1~0_combout $end
$var wire 1 1! IntervalTimer_inst|TrafficLightCounter_inst|D_ff_inst[10]|nand4~0_combout $end
$var wire 1 2! IntervalTimer_inst|TrafficLightCounter_inst|WideOr0~combout $end
$var wire 1 3! IntervalTimer_inst|Selector0~0_combout $end
$var wire 1 4! IntervalTimer_inst|state.S0~q $end
$var wire 1 5! IntervalTimer_inst|Selector1~0_combout $end
$var wire 1 6! IntervalTimer_inst|state.S1~q $end
$var wire 1 7! IntervalTimer_inst|state.S2~q $end
$var wire 1 8! IntervalTimer_inst|state.S3~q $end
$var wire 1 9! IntervalTimer_inst|state.S4~q $end
$var wire 1 :! IntervalTimer_inst|TL~0_combout $end
$var wire 1 ;! IntervalTimer_inst|TrafficLightCounter_inst|D_ff_inst[0]|nand2~combout $end
$var wire 1 <! IntervalTimer_inst|TrafficLightCounter_inst|D_ff_inst[0]|nand3~0_combout $end
$var wire 1 =! IntervalTimer_inst|TrafficLightCounter_inst|D_ff_inst[0]|nand1~0_combout $end
$var wire 1 >! IntervalTimer_inst|TrafficLightCounter_inst|D_ff_inst[0]|nand4~combout $end
$var wire 1 ?! HR~2_combout $end
$var wire 1 @! FR~0_combout $end
$var wire 1 A! Selector4~3_combout $end
$var wire 1 B! ST_o~reg0_q $end
$upscope $end
$upscope $end
$enddefinitions $end
#0
$dumpvars
0!
0"
1#
0$
1%
0&
1'
0(
0)
0*
1+
1,
x7
x6
x5
x4
x3
x2
x1
x0
x/
x.
x-
x8
09
1:
x;
1<
1=
1>
x?
x@
xA
xB
xC
xD
xE
xF
xG
xH
xI
1J
1K
xL
1M
0N
0O
0P
0Q
1R
0S
0T
0U
0V
0W
0X
1Y
0Z
0[
0\
0]
0^
0_
0`
0a
0b
xc
0d
xe
0f
xg
xh
0i
xj
0k
xl
xm
0n
xo
xp
0q
xr
0s
xt
0u
xv
0w
xx
xy
0z
x{
0|
x}
0~
x!!
0"!
x#!
x$!
0%!
x&!
0'!
x(!
0)!
x*!
0+!
x,!
x-!
0.!
x/!
00!
x1!
x2!
03!
04!
05!
06!
07!
08!
09!
0:!
0;!
x<!
0=!
x>!
0?!
1@!
0A!
0B!
$end
#10000
1"
1T
x=!
x;!
x0!
x.!
x+!
x)!
x'!
x%!
x"!
x~
x|
xz
xw
xu
xs
xq
xn
xk
xi
xf
xd
xU
#20000
0#
0"
0Y
0T
0=!
0;!
00!
0.!
0+!
0)!
0'!
0%!
0"!
0~
0|
0z
0w
0u
0s
0q
0n
0k
0i
0f
0d
0U
#30000
1"
1T
x=!
x;!
x0!
x.!
x+!
x)!
x'!
x%!
x"!
x~
x|
xz
xw
xu
xs
xq
xn
xk
xi
xf
xd
xU
#40000
0"
0T
0=!
0;!
00!
0.!
0+!
0)!
0'!
0%!
0"!
0~
0|
0z
0w
0u
0s
0q
0n
0k
0i
0f
0d
0U
#50000
1"
1T
x=!
x;!
x0!
x.!
x+!
x)!
x'!
x%!
x"!
x~
x|
xz
xw
xu
xs
xq
xn
xk
xi
xf
xd
xU
#60000
0"
0T
0=!
0;!
00!
0.!
0+!
0)!
0'!
0%!
0"!
0~
0|
0z
0w
0u
0s
0q
0n
0k
0i
0f
0d
0U
#70000
1"
1T
x=!
x;!
x0!
x.!
x+!
x)!
x'!
x%!
x"!
x~
x|
xz
xw
xu
xs
xq
xn
xk
xi
xf
xd
xU
#80000
1!
0"
1W
0T
1b
0=!
0;!
00!
0.!
0+!
0)!
0'!
0%!
0"!
0~
0|
0z
0w
0u
0s
0q
0n
0k
0i
0f
0d
0U
1A!
15!
13!
1_
1]
1c
0h
0m
0r
0v
0{
0!!
0&!
0*!
0/!
0<!
#90000
1"
1T
1>!
1;!
11!
1.!
1,!
1)!
1(!
1%!
1#!
1~
1}
1z
1x
1u
1t
1q
1o
1k
1j
1f
1d
0A
0B
0C
0D
0E
0F
0G
0H
0I
0?
0e
07
0-
0.
0/
00
01
02
03
04
05
1@
0y
0p
1l
1g
16
0-!
0$!
02!
0L
08
14!
1^
1B!
16!
1`
1N
1S
0M
0b
1V
0'
1*
1)
0A!
0_
1X
0K
0c
0,
1_
0X
#100000
0"
0T
0;!
0.!
0)!
0%!
0~
0z
0u
0q
0k
0f
0d
1<!
#110000
1"
1T
1=!
1.!
1)!
1%!
1~
1z
1u
1q
1k
1f
1e
1U
0@
1y
1p
0l
0g
0>!
06
1?
0<!
0y
0p
1l
1g
1-!
1$!
17
12!
1L
0-!
0$!
18
02!
05!
0L
08
15!
0B!
0S
0*
#120000
0"
0T
0=!
0.!
0)!
0%!
0~
0z
0u
0q
0k
0f
0U
#130000
1"
1T
1>!
1;!
1.!
1)!
1%!
1~
1z
1u
1q
1k
1f
1U
0?
1y
1p
0l
0g
07
1-!
1$!
12!
1L
18
05!
#140000
0"
0T
0;!
0.!
0)!
0%!
0~
0z
0u
0q
0k
0f
0U
1c
1h
1m
1r
1v
1{
1!!
1&!
1*!
1/!
1<!
#150000
1"
1T
1=!
10!
1+!
1'!
1"!
1|
1w
1s
1n
1i
1d
0e
0j
0o
0t
0x
0}
0#!
0(!
0,!
01!
0>!
1?
1I
1H
1G
1F
1E
1D
1C
1B
1A
1@
0<!
0y
0p
0/!
0-!
0&!
0$!
0{
0r
16
15
14
13
12
11
10
1/
1.
1-
17
02!
0L
1&!
1/!
1r
1{
08
15!
17!
06!
1a
0V
1:!
05!
0J
1K
1<!
0/!
0*!
0&!
0!!
0{
0v
0r
1,
0+
1A!
0_
1X
#160000
0"
0T
0=!
00!
0+!
0'!
0"!
0|
0w
0s
0n
0i
0d
#170000
1"
1T
1=!
11!
1.!
1,!
1)!
1(!
1%!
1#!
1~
1}
1z
1x
1u
1t
1q
1n
1i
1d
0C
0D
0E
0F
0G
0H
0I
0-
0.
0/
00
01
02
03
1B!
0`
1Z
1P
0N
1S
0a
1*
0)
1$
1?!
0@!
0R
1O
0<!
1(
0%
0A!
#180000
0"
0T
0=!
0.!
0)!
0%!
0~
0z
0u
0q
0n
0i
0d
#190000
1"
1T
1>!
1;!
1.!
1)!
1%!
1~
1z
1u
1q
1n
1i
1d
0?
0c
07
0B!
0S
0*
#200000
0"
0T
0;!
0.!
0)!
0%!
0~
0z
0u
0q
0n
0i
0d
1<!
#210000
1"
1T
1=!
1.!
1)!
1%!
1~
1z
1u
1q
1n
1i
1e
1U
0@
1g
0>!
06
1?
0<!
0g
0h
17
1h
#220000
0"
0T
0=!
0.!
0)!
0%!
0~
0z
0u
0q
0n
0i
0U
#230000
1"
1T
1>!
1;!
1.!
1)!
1%!
1~
1z
1u
1q
1n
1i
1U
0?
1g
07
0h
#240000
0"
0T
0;!
0.!
0)!
0%!
0~
0z
0u
0q
0n
0i
0U
1c
1<!
#250000
1"
1T
1=!
1.!
1)!
1%!
1~
1z
1u
1q
1n
1j
1f
1d
0A
0e
1l
0g
0>!
05
1?
1@
0<!
0l
1g
0m
16
17
1m
#260000
0"
0T
0=!
0.!
0)!
0%!
0~
0z
0u
0q
0n
0f
0d
#270000
1"
1T
1>!
1;!
1.!
1)!
1%!
1~
1z
1u
1q
1n
1f
1d
0?
0c
07
#280000
0"
0T
0;!
0.!
0)!
0%!
0~
0z
0u
0q
0n
0f
0d
1<!
#290000
1"
1T
1=!
1.!
1)!
1%!
1~
1z
1u
1q
1n
1f
1e
1U
0@
1l
0g
0>!
06
1?
0<!
0l
1g
0m
17
1m
#300000
0"
0T
0=!
0.!
0)!
0%!
0~
0z
0u
0q
0n
0f
0U
#310000
1"
1T
1>!
1;!
1.!
1)!
1%!
1~
1z
1u
1q
1n
1f
1U
0?
1l
0g
07
0m
#320000
0"
0T
0;!
0.!
0)!
0%!
0~
0z
0u
0q
0n
0f
0U
1c
1h
1<!
#330000
1"
1T
1=!
1.!
1)!
1%!
1~
1z
1u
1q
1o
1k
1i
1d
0B
0e
0j
1y
1p
0l
0>!
04
1?
1A
1@
0<!
0y
0p
1l
1-!
1$!
16
15
17
12!
1L
0-!
0$!
18
02!
0L
08
#340000
0"
0T
0=!
0.!
0)!
0%!
0~
0z
0u
0q
0k
0i
0d
#350000
1"
1T
1>!
1;!
1.!
1)!
1%!
1~
1z
1u
1q
1k
1i
1d
0?
0c
07
#360000
0"
0T
0;!
0.!
0)!
0%!
0~
0z
0u
0q
0k
0i
0d
1<!
#370000
1"
1T
1=!
1.!
1)!
1%!
1~
1z
1u
1q
1k
1i
1e
1U
0@
1g
0>!
06
1?
0<!
0g
0h
17
1h
#380000
0"
0T
0=!
0.!
0)!
0%!
0~
0z
0u
0q
0k
0i
0U
#390000
1"
1T
1>!
1;!
1.!
1)!
1%!
1~
1z
1u
1q
1k
1i
1U
0?
1g
07
0h
#400000
0"
0T
0;!
0.!
0)!
0%!
0~
0z
0u
0q
0k
0i
0U
1c
1<!
#410000
1"
1T
1=!
1.!
1)!
1%!
1~
1z
1u
1q
1k
1j
1f
1d
0A
0e
1y
1p
0l
0g
0>!
05
1?
1@
0<!
0y
0p
1l
1g
1-!
1$!
16
17
12!
1L
0-!
0$!
18
02!
0L
08
#420000
0"
0T
0=!
0.!
0)!
0%!
0~
0z
0u
0q
0k
0f
0d
#430000
1"
1T
1>!
1;!
1.!
1)!
1%!
1~
1z
1u
1q
1k
1f
1d
0?
0c
07
#440000
0"
0T
0;!
0.!
0)!
0%!
0~
0z
0u
0q
0k
0f
0d
1<!
#450000
1"
1T
1=!
1.!
1)!
1%!
1~
1z
1u
1q
1k
1f
1e
1U
0@
1y
1p
0l
0g
0>!
06
1?
0<!
0y
0p
1l
1g
1-!
1$!
17
12!
1L
0-!
0$!
18
02!
0L
08
#460000
0"
0T
0=!
0.!
0)!
0%!
0~
0z
0u
0q
0k
0f
0U
#470000
1"
1T
1>!
1;!
1.!
1)!
1%!
1~
1z
1u
1q
1k
1f
1U
0?
1y
1p
0l
0g
07
1-!
1$!
12!
1L
18
#480000
0"
0T
0;!
0.!
0)!
0%!
0~
0z
0u
0q
0k
0f
0U
1c
1h
1m
1r
1v
1{
1!!
1&!
1*!
1/!
1<!
#490000
1"
1T
1=!
10!
1+!
1'!
1"!
1|
1w
1s
1n
1i
1d
0e
0j
0o
0t
0x
0}
0#!
0(!
0,!
01!
0>!
1?
1I
1H
1G
1F
1E
1D
1C
1B
1A
1@
0<!
0y
0p
0/!
0-!
0&!
0$!
0{
0r
16
15
14
13
12
11
10
1/
1.
1-
17
02!
0L
1&!
1/!
1r
1{
08
18!
07!
0:!
1b
1V
0K
1J
0/!
0*!
0&!
0!!
0{
0v
0r
0m
0h
1+
0,
1[
0X
1A!
#500000
0"
0T
0=!
00!
0+!
0'!
0"!
0|
0w
0s
0n
0i
0d
#510000
1"
1T
1>!
1;!
11!
1.!
1,!
1)!
1(!
1%!
1#!
1~
1}
1z
1x
1u
1t
1q
1o
1k
1j
1f
1d
0A
0B
0C
0D
0E
0F
0G
0H
0I
0?
1l
1g
07
0-
0.
0/
00
01
02
03
04
05
1B!
1\
0Z
0P
1Q
1S
0b
1*
1&
0$
0A!
0c
#520000
0"
0T
0;!
0.!
0)!
0%!
0~
0z
0u
0q
0k
0f
0d
1<!
#530000
1"
1T
1=!
1.!
1)!
1%!
1~
1z
1u
1q
1k
1f
1e
1U
0@
1y
1p
0l
0g
0>!
06
1?
0<!
0y
0p
1l
1g
1-!
1$!
17
12!
1L
0-!
0$!
18
02!
0L
08
0B!
0S
0*
#540000
0"
0T
0=!
0.!
0)!
0%!
0~
0z
0u
0q
0k
0f
0U
#550000
1"
1T
1>!
1;!
1.!
1)!
1%!
1~
1z
1u
1q
1k
1f
1U
0?
1y
1p
0l
0g
07
1-!
1$!
12!
1L
18
#560000
0"
0T
0;!
0.!
0)!
0%!
0~
0z
0u
0q
0k
0f
0U
1c
1h
1m
1r
1v
1{
1!!
1&!
1*!
1/!
1<!
#570000
1"
1T
1=!
10!
1+!
1'!
1"!
1|
1w
1s
1n
1i
1d
0e
0j
0o
0t
0x
0}
0#!
0(!
0,!
01!
0>!
1?
1I
1H
1G
1F
1E
1D
1C
1B
1A
1@
0<!
0y
0p
0/!
0-!
0&!
0$!
0{
0r
16
15
14
13
12
11
10
1/
1.
1-
17
02!
0L
1&!
1/!
1r
1{
08
19!
08!
1:!
1a
0V
1K
0J
1<!
0/!
0*!
0&!
0!!
0{
0v
0r
0+
1,
0]
0[
1A!
#580000
0"
0T
0=!
00!
0+!
0'!
0"!
0|
0w
0s
0n
0i
0d
#590000
1"
1T
1=!
11!
1.!
1,!
1)!
1(!
1%!
1#!
1~
1}
1z
1x
1u
1t
1q
1n
1i
1d
0C
0D
0E
0F
0G
0H
0I
0-
0.
0/
00
01
02
03
0^
1B!
0\
0Q
1S
1M
0a
1'
1*
0&
1@!
0?!
0O
1R
0<!
1%
0(
0A!
#600000
0"
0T
0=!
0.!
0)!
0%!
0~
0z
0u
0q
0n
0i
0d
#610000
1"
1T
1>!
1;!
1.!
1)!
1%!
1~
1z
1u
1q
1n
1i
1d
0?
0c
07
0B!
0S
0*
#620000
0"
0T
0;!
0.!
0)!
0%!
0~
0z
0u
0q
0n
0i
0d
1<!
#630000
1"
1T
1=!
1.!
1)!
1%!
1~
1z
1u
1q
1n
1i
1e
1U
0@
1g
0>!
06
1?
0<!
0g
0h
17
1h
#640000
0"
0T
0=!
0.!
0)!
0%!
0~
0z
0u
0q
0n
0i
0U
#650000
1"
1T
1>!
1;!
1.!
1)!
1%!
1~
1z
1u
1q
1n
1i
1U
0?
1g
07
0h
#660000
0"
0T
0;!
0.!
0)!
0%!
0~
0z
0u
0q
0n
0i
0U
1c
1<!
#670000
1"
1T
1=!
1.!
1)!
1%!
1~
1z
1u
1q
1n
1j
1f
1d
0A
0e
1l
0g
0>!
05
1?
1@
0<!
0l
1g
0m
16
17
1m
#680000
0"
0T
0=!
0.!
0)!
0%!
0~
0z
0u
0q
0n
0f
0d
#690000
1"
1T
1>!
1;!
1.!
1)!
1%!
1~
1z
1u
1q
1n
1f
1d
0?
0c
07
#700000
0"
0T
0;!
0.!
0)!
0%!
0~
0z
0u
0q
0n
0f
0d
1<!
#710000
1"
1T
1=!
1.!
1)!
1%!
1~
1z
1u
1q
1n
1f
1e
1U
0@
1l
0g
0>!
06
1?
0<!
0l
1g
0m
17
1m
#720000
0"
0T
0=!
0.!
0)!
0%!
0~
0z
0u
0q
0n
0f
0U
#730000
1"
1T
1>!
1;!
1.!
1)!
1%!
1~
1z
1u
1q
1n
1f
1U
0?
1l
0g
07
0m
#740000
0"
0T
0;!
0.!
0)!
0%!
0~
0z
0u
0q
0n
0f
0U
1c
1h
1<!
#750000
1"
1T
1=!
1.!
1)!
1%!
1~
1z
1u
1q
1o
1k
1i
1d
0B
0e
0j
1y
1p
0l
0>!
04
1?
1A
1@
0<!
0y
0p
1l
1-!
1$!
16
15
17
12!
1L
0-!
0$!
18
02!
03!
0L
08
13!
#760000
0"
0T
0=!
0.!
0)!
0%!
0~
0z
0u
0q
0k
0i
0d
#770000
1"
1T
1>!
1;!
1.!
1)!
1%!
1~
1z
1u
1q
1k
1i
1d
0?
0c
07
#780000
0"
0T
0;!
0.!
0)!
0%!
0~
0z
0u
0q
0k
0i
0d
1<!
#790000
1"
1T
1=!
1.!
1)!
1%!
1~
1z
1u
1q
1k
1i
1e
1U
0@
1g
0>!
06
1?
0<!
0g
0h
17
1h
#800000
0!
0"
0W
0T
0=!
0.!
0)!
0%!
0~
0z
0u
0q
0k
0i
0U
#810000
1"
1T
1>!
1;!
1.!
1)!
1%!
1~
1z
1u
1q
1k
1i
1U
0?
1g
07
0h
#820000
0"
0T
0;!
0.!
0)!
0%!
0~
0z
0u
0q
0k
0i
0U
1c
1<!
#830000
1"
1T
1=!
1.!
1)!
1%!
1~
1z
1u
1q
1k
1j
1f
1d
0A
0e
1y
1p
0l
0g
0>!
05
1?
1@
0<!
0y
0p
1l
1g
1-!
1$!
16
17
12!
1L
0-!
0$!
18
02!
03!
0L
08
13!
#840000
0"
0T
0=!
0.!
0)!
0%!
0~
0z
0u
0q
0k
0f
0d
#850000
1"
1T
1>!
1;!
1.!
1)!
1%!
1~
1z
1u
1q
1k
1f
1d
0?
0c
07
#860000
0"
0T
0;!
0.!
0)!
0%!
0~
0z
0u
0q
0k
0f
0d
1<!
#870000
1"
1T
1=!
1.!
1)!
1%!
1~
1z
1u
1q
1k
1f
1e
1U
0@
1y
1p
0l
0g
0>!
06
1?
0<!
0y
0p
1l
1g
1-!
1$!
17
12!
1L
0-!
0$!
18
02!
03!
0L
08
13!
#880000
0"
0T
0=!
0.!
0)!
0%!
0~
0z
0u
0q
0k
0f
0U
#890000
1"
1T
1>!
1;!
1.!
1)!
1%!
1~
1z
1u
1q
1k
1f
1U
0?
1y
1p
0l
0g
07
1-!
1$!
12!
1L
18
03!
#900000
0"
0T
0;!
0.!
0)!
0%!
0~
0z
0u
0q
0k
0f
0U
1c
1h
1m
1r
1v
1{
1!!
1&!
1*!
1/!
1<!
#910000
1"
1T
1=!
10!
1+!
1'!
1"!
1|
1w
1s
1n
1i
1d
0e
0j
0o
0t
0x
0}
0#!
0(!
0,!
01!
0>!
1?
1I
1H
1G
1F
1E
1D
1C
1B
1A
1@
0<!
0y
0p
0/!
0-!
0&!
0$!
0{
0r
16
15
14
13
12
11
10
1/
1.
1-
17
02!
0L
1&!
1/!
1r
1{
08
13!
09!
04!
0:!
03!
1J
1+
#920000
0"
0T
0=!
00!
0+!
0'!
0"!
0|
0w
0s
0n
0i
0d
#930000
1"
1T
1>!
1;!
10!
1+!
1'!
1"!
1|
1w
1s
1n
1i
1d
0?
0c
07
#940000
0"
0T
0;!
00!
0+!
0'!
0"!
0|
0w
0s
0n
0i
0d
1<!
#950000
1"
1T
1=!
10!
1+!
1'!
1"!
1|
1w
1s
1n
1i
1e
1U
0@
1g
0>!
06
1?
0<!
0g
0h
17
1h
#960000
0"
0T
0=!
00!
0+!
0'!
0"!
0|
0w
0s
0n
0i
0U
#970000
1"
1T
1>!
1;!
10!
1+!
1'!
1"!
1|
1w
1s
1n
1i
1U
0?
1g
07
0h
#980000
0"
0T
0;!
00!
0+!
0'!
0"!
0|
0w
0s
0n
0i
0U
1c
1<!
#990000
1"
1T
1=!
10!
1+!
1'!
1"!
1|
1w
1s
1n
1j
1f
1d
0A
0e
1l
0g
0>!
05
1?
1@
0<!
0l
1g
0m
16
17
1m
